silge_text_classification
…
classifications <- books_tidy %>%
  inner_join(test_data) %>%
  inner_join(coefs, by = c("word" = "term")) %>%
  group_by(document) %>%
  summarize(score = sum(estimate)) %>%
  mutate(probability = plogis(intercept + score))

Joining, by = "document"

classifications

# A tibble: 3,993 x 3
   document   score probability
      <int>   <dbl>       <dbl>
 1       29 -2.91       0.128  
 2       39 -4.06       0.0442 
 3       40 -2.13       0.242  
 4       41 -4.15       0.0405 
 5       47 -0.571      0.602  
 6       66 -1.89       0.289  
 7       68 -5.43       0.0116 
 8       74 -3.58       0.0698 
 9       76  0.0557     0.739  
10       77 -6.03       0.00639
# … with 3,983 more rows
…
