topic_detection
…
spike1_unique %>% select(date_parsed) %>% str() #parsed correctly

Classes 'spec_tbl_df', 'tbl_df', 'tbl' and 'data.frame':    3384 obs. of  1 variable:
 $ date_parsed: Date, format: "2016-10-31" "2016-11-01" ...

## **1.4. create a rather standardised publication column====

spike1_unique %>% 
  select(PUBLICATION) %>% 
  distinct() # 21 publications

# A tibble: 21 x 1
   PUBLICATION                     
   <chr>                           
 1 The Independent (United Kingdom)
 2 mirror.co.uk                    
 3 MailOnline                      
 4 Express Online                  
 5 The Guardian                    
 6 The Daily Telegraph (London)    
 7 The Express                     
 8 i-Independent Print Ltd         
 9 telegraph.co.uk                 
10 The Observer (London)           
# … with 11 more rows
…
headlines_dtm <- DocumentTermMatrix(headlines_corpus)
headlines_lda <- LDA(headlines_dtm, k=10, control = list(seed=1234))

headlines_lda %>% summary()

 Length   Class    Mode 
      1 LDA_VEM      S4 

library(tidytext)
headlines_topics <- tidy(headlines_lda, matrix="beta")
headlines_topics

# A tibble: 113,530 x 3
   topic term        beta
   <int> <chr>      <dbl>
 1     1 !':   0.0000299 
 2     2 !':   0.00000318
 3     3 !':   0.0000380 
 4     4 !':   0.0000518 
 5     5 !':   0.0000267 
 6     6 !':   0.0000581 
 7     7 !':   0.0000116 
 8     8 !':   0.0000370 
 9     9 !':   0.00000474
10    10 !':   0.00000661
# … with 113,520 more rows

headlines_top_terms <- headlines_topics %>%
  group_by(topic) %>%
  top_n(15, beta) %>%
  ungroup() %>%
  arrange(topic, -beta)

headlines_top_terms

# A tibble: 150 x 3
   topic term           beta
   <int> <chr>         <dbl>
 1     1 brexit      0.0263 
 2     1 vote        0.0129 
 3     1 "\"brexit"  0.00962
 4     1 court       0.00897
 5     1 "brexit\"," 0.00784
 6     1 brexit;     0.00708
 7     1 trump       0.00660
 8     1 mps         0.00615
 9     1 brexit,     0.00581
10     1 article     0.00537
# … with 140 more rows
…
 7      20 0.0164  0.0727  
 8      20 0.0164  0.131   
 9      20 0.0164  0.00724 
10      20 0.0164  0.0772  
11      20 0.0164  0.0409  
12      20 0.0164 -0.000826
13      20 0.0164  0.103   
14      20 0.0164  0.185   
15      20 0.0164  0.0635  
16      20 0.0164  0.0637  
17      20 0.0164  0.160   
18      20 0.0164  0.0467  
19      20 0.0164  0.0917  
20      20 0.0164  0.0210  
# A tibble: 25 x 3
   k_value     r2 coherence
     <dbl>  <dbl>     <dbl>
 1      25 0.0182    0.104 
 2      25 0.0182    0.0782
 3      25 0.0182    0.138 
 4      25 0.0182    0.0724
 5      25 0.0182    0.0804
 6      25 0.0182    0.284 
 7      25 0.0182    0.0259
 8      25 0.0182    0.564 
 9      25 0.0182    0.0286
10      25 0.0182    0.0342
# … with 15 more rows
# A tibble: 30 x 3
   k_value     r2 coherence
     <dbl>  <dbl>     <dbl>
 1      30 0.0188   0.168  
 2      30 0.0188   0.0118 
 3      30 0.0188   0.0608 
 4      30 0.0188   0.154  
 5      30 0.0188   0.180  
 6      30 0.0188   0.218  
 7      30 0.0188   0.0484 
 8      30 0.0188   0.0766 
 9      30 0.0188  -0.00175
10      30 0.0188   0.0785 
# … with 20 more rows
# A tibble: 35 x 3
   k_value     r2 coherence
     <dbl>  <dbl>     <dbl>
 1      35 0.0188   0.00361
 2      35 0.0188   0.0190 
 3      35 0.0188   0.206  
 4      35 0.0188   0.105  
 5      35 0.0188   0.104  
 6      35 0.0188   0.0807 
 7      35 0.0188   0.168  
 8      35 0.0188   0.0116 
 9      35 0.0188   0.110  
10      35 0.0188   0.0731 
# … with 25 more rows
# A tibble: 40 x 3
   k_value     r2 coherence
     <dbl>  <dbl>     <dbl>
 1      40 0.0183   0.195  
 2      40 0.0183   0.00667
 3      40 0.0183   0.252  
 4      40 0.0183   0.0826 
 5      40 0.0183   0.195  
 6      40 0.0183   0.0676 
 7      40 0.0183   0.0119 
 8      40 0.0183   0.0234 
 9      40 0.0183   0.0193 
10      40 0.0183   0.00546
# … with 30 more rows
# A tibble: 45 x 3
   k_value     r2 coherence
     <dbl>  <dbl>     <dbl>
 1      45 0.0177    0.208 
 2      45 0.0177    0.0517
 3      45 0.0177    0.217 
 4      45 0.0177    0.0851
 5      45 0.0177    0.0991
 6      45 0.0177    0.0861
 7      45 0.0177    0.0815
 8      45 0.0177    0.312 
 9      45 0.0177    0.124 
10      45 0.0177    0.186 
# … with 35 more rows
# A tibble: 50 x 3
   k_value     r2 coherence
     <dbl>  <dbl>     <dbl>
 1      50 0.0177   0.0996 
 2      50 0.0177   0.00879
 3      50 0.0177   0.0457 
 4      50 0.0177   0.0521 
 5      50 0.0177   0.118  
 6      50 0.0177   0.00229
 7      50 0.0177   0.0871 
 8      50 0.0177   0.0963 
 9      50 0.0177   0.0772 
10      50 0.0177   0.323  
# … with 40 more rows
# A tibble: 55 x 3
   k_value     r2 coherence
     <dbl>  <dbl>     <dbl>
 1      55 0.0156    0.252 
 2      55 0.0156    0.0191
 3      55 0.0156    0.107 
 4      55 0.0156    0.0800
 5      55 0.0156    0.0736
 6      55 0.0156    0.118 
 7      55 0.0156    0.139 
 8      55 0.0156    0.191 
 9      55 0.0156    0.320 
10      55 0.0156    0.0373
# … with 45 more rows
# A tibble: 60 x 3
   k_value     r2 coherence
     <dbl>  <dbl>     <dbl>
 1      60 0.0156   0.00905
 2      60 0.0156   0.104  
 3      60 0.0156   0.0466 
 4      60 0.0156   0.190  
 5      60 0.0156   0.0359 
 6      60 0.0156   0.0798 
 7      60 0.0156   0.105  
 8      60 0.0156   0.246  
 9      60 0.0156   0.0717 
10      60 0.0156   0.0268 
# … with 50 more rows
# A tibble: 65 x 3
   k_value     r2 coherence
     <dbl>  <dbl>     <dbl>
 1      65 0.0154    0.0660
 2      65 0.0154    0.392 
 3      65 0.0154    0.0143
 4      65 0.0154    0.531 
 5      65 0.0154    0.164 
 6      65 0.0154    0.0292
 7      65 0.0154    0.0307
 8      65 0.0154    0.0417
 9      65 0.0154    0.115 
10      65 0.0154    0.0425
# … with 55 more rows
# A tibble: 70 x 3
   k_value     r2 coherence
     <dbl>  <dbl>     <dbl>
 1      70 0.0132    0.275 
 2      70 0.0132    0.0952
 3      70 0.0132    0.154 
 4      70 0.0132    0.128 
 5      70 0.0132    0.0680
 6      70 0.0132    0.250 
 7      70 0.0132    0.0115
 8      70 0.0132    0.0242
 9      70 0.0132    0.129 
10      70 0.0132    0.530 
# … with 60 more rows
# A tibble: 75 x 3
   k_value     r2 coherence
     <dbl>  <dbl>     <dbl>
 1      75 0.0118    0.0404
 2      75 0.0118    0.0557
 3      75 0.0118    0.0647
 4      75 0.0118    0.0821
 5      75 0.0118    0.0570
 6      75 0.0118    0.165 
 7      75 0.0118    0.0745
 8      75 0.0118    0.214 
 9      75 0.0118    0.0772
10      75 0.0118    0.217 
# … with 65 more rows
# A tibble: 80 x 3
   k_value     r2 coherence
     <dbl>  <dbl>     <dbl>
 1      80 0.0112    0.0504
 2      80 0.0112    0.0235
 3      80 0.0112    0.0399
 4      80 0.0112    0.0650
 5      80 0.0112    0.0227
 6      80 0.0112    0.110 
 7      80 0.0112    0.0190
 8      80 0.0112    0.0546
 9      80 0.0112    0.119 
10      80 0.0112    0.115 
# … with 70 more rows
# A tibble: 85 x 3
   k_value     r2 coherence
     <dbl>  <dbl>     <dbl>
 1      85 0.0105    0.317 
 2      85 0.0105    0.0355
 3      85 0.0105    0.224 
 4      85 0.0105    0.249 
 5      85 0.0105    0.0312
 6      85 0.0105    0.0508
 7      85 0.0105    0.0596
 8      85 0.0105    0.569 
 9      85 0.0105    0.0861
10      85 0.0105    0.0721
# … with 75 more rows
# A tibble: 90 x 3
   k_value      r2 coherence
     <dbl>   <dbl>     <dbl>
 1      90 0.00898    0.189 
 2      90 0.00898    0.0970
 3      90 0.00898    0.0581
 4      90 0.00898    0.0655
 5      90 0.00898    0.0967
 6      90 0.00898    0.244 
 7      90 0.00898    0.612 
 8      90 0.00898    0.0201
 9      90 0.00898    0.111 
10      90 0.00898    0.154 
# … with 80 more rows
# A tibble: 95 x 3
   k_value      r2 coherence
     <dbl>   <dbl>     <dbl>
 1      95 0.00783    0.0751
 2      95 0.00783    0.254 
 3      95 0.00783    0.0901
 4      95 0.00783    0.0935
 5      95 0.00783    0.0565
 6      95 0.00783    0.222 
 7      95 0.00783    0.0588
 8      95 0.00783    0.331 
 9      95 0.00783    0.0213
10      95 0.00783    0.385 
# … with 85 more rows
# A tibble: 100 x 3
   k_value      r2 coherence
     <dbl>   <dbl>     <dbl>
 1     100 0.00704    0.0585
 2     100 0.00704    0.582 
 3     100 0.00704    0.126 
 4     100 0.00704    0.0262
 5     100 0.00704    0.0206
 6     100 0.00704    0.331 
 7     100 0.00704    0.0265
 8     100 0.00704    0.310 
 9     100 0.00704    0.482 
10     100 0.00704    0.318 
# … with 90 more rows
…
